<svg width="249" height="239" xmlns="http://www.w3.org/2000/svg">

 <g>
  <title>background</title>
  <rect fill="none" id="canvas_background" height="402" width="582" y="-1" x="-1"/>
 </g>
 <g>
  <title>Layer 1</title>
  <path fill="#106eea" id="svg_1" d="m149.83,151.1c-16.62,10.22 -31.43,10.61 -48.62,0.66c-0.83,2.53 -1.71,4.93 -2.4,7.39c-3.55,12.68 -11.24,20.75 -24.6,23.18c-10.3,1.88 -20.49,4.4 -30.75,6.51c-12.5,2.57 -20.35,9.96 -23.59,22.28c-1.39,5.31 -2.57,10.69 -4.3,15.88c-0.41,1.24 -2.63,1.88 -4.02,2.8c-0.87,-1.4 -2.73,-3.02 -2.46,-4.15c2.39,-10.15 3.52,-20.78 9.87,-29.58c6.2,-8.6 14.96,-12.85 25.17,-14.79c10.13,-1.93 20.19,-4.17 30.29,-6.28c8.01,-1.67 13.28,-6.53 16.3,-14.01c0.06,-0.15 0.11,-0.32 0.18,-0.47c4.24,-9.07 4.21,-16.98 -3.2,-25.18c-9.45,-10.47 -16.33,-22.89 -17.98,-37.24c-2.12,-18.37 -4.18,-37.01 2.17,-54.9c7.43,-20.91 22.93,-33.46 44.73,-36.7c21.77,-3.24 40.06,4.28 53.63,21.9c2.54,3.3 4.92,4.83 9.26,5.06c14.27,0.76 24.32,11.65 24.35,25.95c0.02,9.89 1.38,19.94 -4.4,29.18c-1.45,2.32 -0.52,6.18 -0.54,9.33c-0.11,18.72 -12.29,30.97 -30.97,31.03c-15,0.05 -30,0.03 -45,0c-5.93,-0.01 -8.92,-2.49 -8.81,-7.09c0.1,-4.3 3.15,-6.76 8.68,-6.75c5.34,0.01 11.37,-1.47 13.67,5.91c0.19,0.6 2,0.95 3.07,0.97c6.83,0.09 13.7,0.42 20.48,-0.17c2.24,-0.19 5.33,-2.43 6.18,-4.5c2.9,-7.02 6.53,-14.28 7.03,-21.65c1.01,-14.7 1.97,-29.83 -0.39,-44.23c-3.99,-24.32 -27.64,-40.66 -52.05,-38.49c-24.81,2.21 -44.36,22.35 -45.02,47.29c-0.4,14.92 -1.72,29.98 2.84,44.66c4.72,15.22 14.05,27.69 24.87,38.69c12.6,12.8 34.26,10.78 46.47,-2.98c0.88,-1 1.53,-2.44 2.62,-2.95c1.29,-0.6 3.65,-1.09 4.29,-0.42c0.95,0.99 1.61,3.75 0.95,4.51c-2.42,2.8 -1.67,5.47 -0.75,8.36c0.95,3.01 1.79,6.06 2.74,9.07c2.81,8.89 8.67,14.23 17.95,16.03c11.26,2.19 22.52,4.46 33.67,7.17c12.74,3.1 21.5,11.03 25.63,23.55c1.97,5.99 3.55,12.14 4.73,18.33c0.31,1.64 -1.5,3.69 -2.33,5.55c-1.45,-1.28 -3.65,-2.29 -4.21,-3.88c-1.7,-4.85 -2.78,-9.92 -4.07,-14.91c-3.14,-12.17 -10.93,-19.48 -23.15,-22.12c-10.73,-2.32 -21.44,-4.74 -32.2,-6.87c-11.8,-2.33 -19.14,-9.39 -22.78,-20.63c-1.07,-3.29 -2.08,-6.62 -3.23,-10.3zm32.16,-59.67c7.54,-1.95 12.84,-6.16 13.81,-12.94c1.14,-7.95 1.2,-16.31 0.09,-24.27c-1.2,-8.62 -10.13,-14.3 -18.06,-12.82c6.32,16.03 3.18,32.86 4.16,50.03zm-8.47,29.41c11.3,-0.42 21.11,-14.32 17.39,-24.65c-2.83,0.86 -5.71,1.59 -8.46,2.65c-1.02,0.4 -2.18,1.43 -2.53,2.43c-2.21,6.39 -4.23,12.85 -6.4,19.57z"/>
  <path fill="#106eea" id="svg_2" d="m139.7,57.84c-11.68,12.53 -26.36,18.06 -42.47,20.48c-2.79,0.42 -5.68,0.96 -8.41,0.6c-1.65,-0.21 -3.09,-2.04 -4.63,-3.14c1.46,-1.22 2.76,-3.15 4.42,-3.55c7.72,-1.85 15.73,-2.68 23.29,-4.99c11.63,-3.55 21.15,-10.22 26.97,-21.45c0.69,-1.33 3.05,-1.79 4.63,-2.65c0.8,1.47 2.19,2.9 2.29,4.42c0.48,6.97 1.5,13.84 7.17,18.49c2.82,2.31 6.9,3.02 10.15,4.9c1.53,0.88 2.47,2.8 3.68,4.25c-1.73,0.86 -3.6,2.67 -5.17,2.44c-9.37,-1.39 -16.19,-6.47 -20,-15.3c-0.56,-1.36 -1.15,-2.71 -1.92,-4.5z"/>
 </g>
</svg>