<?xml version="1.0" encoding="utf-8"?>
<!-- Generator: Adobe Illustrator 25.4.1, SVG Export Plug-In . SVG Version: 6.00 Build 0)  -->
<svg version="1.1"
	 id="Layer_1" xmlns:cc="http://creativecommons.org/ns#" xmlns:dc="http://purl.org/dc/elements/1.1/" xmlns:inkscape="http://www.inkscape.org/namespaces/inkscape" xmlns:rdf="http://www.w3.org/1999/02/22-rdf-syntax-ns#" xmlns:sodipodi="http://sodipodi.sourceforge.net/DTD/sodipodi-0.dtd" xmlns:svg="http://www.w3.org/2000/svg"
	 xmlns="http://www.w3.org/2000/svg" xmlns:xlink="http://www.w3.org/1999/xlink" x="0px" y="0px" viewBox="0 0 80.4 84.6"
	 style="enable-background:new 0 0 80.4 84.6;" xml:space="preserve">
<style type="text/css">
	.st0{fill:#106EEA;}
</style>
<g transform="translate(0,-952.36218)">
	<path class="st0" d="M45.1,953.5c-18.7,0-33.8,15.1-33.8,33.8c0,0.2,0.1,0.4,0.2,0.6l-7.6,7c-1.4,1.3-1.5,3.5-0.3,4.8
		c1.3,1.4,3.4,1.4,4.8,0.1l1.6-1.5v0.3v33.1c0,1.9,1.5,3.5,3.4,3.5h31.3c1.9,0,3.4-1.6,3.4-3.5V1021c17.4-1.5,30.8-16.2,30.8-33.7
		C78.9,968.7,63.7,953.5,45.1,953.5L45.1,953.5z M45.1,955.2c17.8,0,32.2,14.4,32.2,32.2c0,16.6-12.7,30.5-29.2,32v-20.6l1.2,1.1
		c1.4,1.3,3.6,1.3,4.8-0.1c1.3-1.4,1.1-3.6-0.3-4.8l-22.5-20.6c0,0-0.1-0.1-0.1-0.1c0,0,0,0,0,0c0,0,0,0,0,0c-0.6-0.5-1.3-0.8-2-0.9
		c0,0-0.1,0-0.2,0c0,0-0.1,0-0.1,0c0,0,0,0,0,0c0,0,0,0-0.1,0c0,0,0,0,0,0c0,0,0,0-0.1,0c0,0-0.1,0-0.1,0c0,0,0,0,0,0
		c-0.7,0-1.3,0.3-1.9,0.7c0,0-0.1,0-0.1,0.1c0,0,0,0,0,0c0,0,0,0,0,0c0,0-0.1,0-0.1,0.1l-13.6,12.4
		C13.3,969.2,27.5,955.2,45.1,955.2L45.1,955.2z M28.9,974.9C28.9,974.9,28.9,974.9,28.9,974.9C28.9,974.9,28.9,974.9,28.9,974.9
		c0.1,0,0.1,0,0.1,0c0.4,0,0.8,0.2,1.1,0.5c0,0,0,0,0,0c0,0,0,0,0,0c0,0,0,0,0,0c0,0,0,0,0,0l22.5,20.6c0.8,0.7,0.8,1.8,0.2,2.6
		c-0.7,0.7-1.8,0.8-2.6,0l-20.9-19.1c-0.3-0.3-0.8-0.3-1.1,0L7.4,998.7c-0.8,0.7-1.9,0.7-2.6,0c-0.7-0.7-0.6-1.8,0.2-2.6l22.6-20.7
		c0,0,0,0,0,0c0,0,0,0,0,0c0,0,0,0,0,0c0,0,0,0,0,0c0,0,0,0,0.1-0.1c0.3-0.2,0.6-0.3,1-0.3C28.8,974.9,28.9,974.9,28.9,974.9
		L28.9,974.9z M28.9,981.2l17.6,16c0,0,0,0,0,0.1v0.3v34.2c0,1.1-0.8,1.9-1.8,1.9H13.4c-1,0-1.8-0.8-1.8-1.9v-33.1v-1.6
		c0-0.1,0-0.1,0-0.2L28.9,981.2L28.9,981.2z M19.1,1001.6c-0.1,0-0.2,0-0.3,0c-0.1,0-0.1,0-0.2,0.1c-0.1,0-0.1,0.1-0.2,0.2
		c0,0-0.1,0.1-0.2,0.2c0,0-0.1,0.2-0.1,0.2c0,0,0,0.2,0,0.2v7.9c0,0,0,0.2,0,0.2s0,0.1,0.1,0.2c0,0.1,0.1,0.2,0.2,0.2
		c0.1,0.1,0.2,0.1,0.2,0.2c0.1,0.1,0.2,0.1,0.2,0.1c0.1,0,0.2,0,0.3,0h7.7c0.1,0,0.2,0,0.3,0c0.1,0,0.1,0,0.2-0.1
		c0.1,0,0.1-0.1,0.2-0.2c0,0,0.1-0.1,0.2-0.2c0,0,0.1-0.2,0.1-0.2s0-0.2,0-0.2v-7.9c0,0,0-0.2,0-0.2s0-0.1-0.1-0.2
		c0-0.1-0.1-0.2-0.2-0.2c-0.1-0.1-0.2-0.1-0.2-0.2c-0.1-0.1-0.2-0.1-0.2-0.1c-0.1,0-0.2,0-0.3,0H19.1z M31,1001.6
		c-0.1,0-0.2,0-0.3,0c-0.1,0-0.1,0-0.2,0.1c-0.1,0-0.1,0.1-0.2,0.2c0,0-0.1,0.1-0.2,0.2c0,0-0.1,0.2-0.1,0.2c0,0,0,0.2,0,0.2v7.9
		c0,0,0,0.2,0,0.2s0,0.1,0.1,0.2c0,0.1,0.1,0.2,0.2,0.2c0.1,0.1,0.2,0.1,0.2,0.2c0.1,0.1,0.1,0.1,0.2,0.1c0.1,0,0.2,0,0.3,0h7.7
		c0.1,0,0.2,0,0.3,0c0.1,0,0.1,0,0.2-0.1c0.1,0,0.1-0.1,0.2-0.2c0,0,0.1-0.1,0.2-0.2c0,0,0.1-0.2,0.1-0.2c0,0,0-0.2,0-0.2v-7.9
		c0,0,0-0.2,0-0.2s0-0.1-0.1-0.2c0-0.1-0.1-0.2-0.2-0.2c-0.1-0.1-0.2-0.1-0.2-0.2c-0.1-0.1-0.2-0.1-0.2-0.1c-0.1,0-0.2,0-0.3,0
		L31,1001.6L31,1001.6z M19.7,1003.2h6.4v6.4h-6.4C19.7,1009.5,19.7,1003.2,19.7,1003.2z M31.7,1003.2h6.4v6.4h-6.4V1003.2z
		 M19,1014.1c-0.1,0-0.2,0-0.3,0c-0.1,0-0.1,0-0.2,0.1c-0.1,0-0.1,0.1-0.2,0.2c0,0-0.1,0.1-0.2,0.2c0,0-0.1,0.2-0.1,0.2
		c0,0,0,0.2,0,0.2v7.9c0,0,0,0.2,0,0.2s0,0.1,0.1,0.2c0,0.1,0.1,0.2,0.2,0.2c0.1,0.1,0.2,0.1,0.2,0.2c0.1,0.1,0.2,0.1,0.2,0.1
		c0.1,0,0.2,0,0.3,0h7.7c0.1,0,0.1,0,0.2,0c0.1,0,0.1,0,0.2-0.1c0.1,0,0.1-0.1,0.2-0.2c0,0,0.1-0.1,0.2-0.2c0,0,0.1-0.2,0.1-0.2
		c0,0,0-0.2,0-0.2v-7.9c0,0,0-0.2,0-0.2s0-0.1-0.1-0.2c0-0.1-0.1-0.2-0.2-0.2c-0.1-0.1-0.2-0.1-0.2-0.2c-0.1-0.1-0.2-0.1-0.2-0.1
		c-0.1,0-0.2,0-0.2,0L19,1014.1L19,1014.1z M31,1014.2c-0.1,0-0.2,0-0.3,0c-0.1,0-0.1,0-0.2,0.1c-0.1,0-0.1,0.1-0.2,0.2
		c0,0-0.1,0.1-0.2,0.2c0,0-0.1,0.2-0.1,0.2c0,0,0,0.2,0,0.2v7.9c0,0,0,0.2,0,0.2c0,0,0,0.1,0.1,0.2c0,0.1,0.1,0.2,0.2,0.2
		c0.1,0.1,0.2,0.1,0.2,0.2c0.1,0.1,0.2,0.1,0.2,0.1c0.1,0,0.2,0,0.3,0h7.7c0.1,0,0.2,0,0.3,0c0.1,0,0.1,0,0.2-0.1
		c0.1,0,0.1-0.1,0.2-0.2c0,0,0.1-0.1,0.2-0.2c0,0,0.1-0.2,0.1-0.2s0-0.2,0-0.2v-7.9c0,0,0-0.2,0-0.2s0-0.1-0.1-0.2
		c0-0.1-0.1-0.1-0.2-0.2c-0.1-0.1-0.2-0.1-0.2-0.2c-0.1,0-0.1-0.1-0.2-0.1c-0.1,0-0.2,0-0.3,0H31z M19.6,1015.7H26v6.4h-6.4
		C19.6,1022.1,19.6,1015.7,19.6,1015.7z M31.6,1015.8H38v6.4h-6.4V1015.8L31.6,1015.8z"/>
</g>
</svg>
