<svg width="249.03999999999996" height="238.09000000000003" xmlns="http://www.w3.org/2000/svg">

 <g>
  <title>background</title>
  <rect fill="none" id="canvas_background" height="402" width="582" y="-1" x="-1"/>
 </g>
 <g>
  <title>Layer 1</title>
  <path fill="#106eea" id="svg_2" d="m71.65,87.7c5.99,-15.91 11.76,-31.22 17.68,-46.91c0.43,0.19 -0.74,0.04 -1.15,-0.59c-0.82,-1.26 -1.95,-3.04 -1.58,-4.15c0.35,-1.06 2.59,-2.37 3.73,-2.15c4.22,0.8 8.49,1.79 12.43,3.44c10.27,4.29 18.31,11.52 24.48,20.64c1.64,2.42 1.4,6.03 2.45,8.94c0.52,1.43 1.89,3.45 3.07,3.59c7.4,0.86 14.85,1.26 23.58,1.91c0,-8.76 -0.01,-17.04 0.01,-25.31c0,-1.83 -0.39,-3.85 0.25,-5.44c0.62,-1.54 2.34,-2.63 3.57,-3.92c1.19,1.32 3.13,2.5 3.41,4c0.48,2.55 -0.13,5.29 -0.2,7.95c-0.15,5.83 -0.24,11.66 -0.37,17.49c-0.09,4.12 0.43,7.78 2.58,11.74c1.65,3.05 1.22,8.19 -0.13,11.68c-1.82,4.7 -6.65,6.27 -11.7,5.84c-9.29,-0.79 -18.59,-1.49 -27.83,-2.67c-4.92,-0.63 -8.39,-0.01 -9.67,5.48c-0.51,2.2 -1.69,4.25 -2.84,7.01c6.74,1.96 13.01,3.96 19.38,5.56c3.54,0.89 5.26,2.7 5.86,6.34c2.61,15.75 5.55,31.44 8.16,47.19c1.46,8.81 -3.74,16.02 -11.96,17.11c-7.75,1.03 -14.34,-4.67 -15.57,-13.39c-1.31,-9.22 -2.79,-18.42 -3.97,-27.66c-0.38,-2.95 -1.68,-3.81 -4.51,-3.95c-6.31,-0.31 -12.64,-0.77 -18.9,-1.59c-17.61,-2.31 -27.94,-16.6 -23.99,-33.97c1.24,-5.43 0.26,-8.55 -4.23,-11.51c-6.11,-4.03 -10.74,-9.36 -12.42,-16.85c-1.42,-6.33 -0.4,-12.21 2.5,-17.88c4.24,-8.3 8.5,-16.58 12.72,-24.89c5.18,-10.2 13.34,-15.41 24.89,-15.08c2,0.06 4,-0.01 6,0.01c2.52,0.03 5.51,-0.2 5.54,3.37c0.03,3.91 -3.16,3.56 -5.83,3.59c-2.17,0.03 -4.33,-0.02 -6.5,0.01c-7.87,0.09 -13.71,3.57 -17.33,10.59c-4.19,8.14 -8.34,16.29 -12.46,24.46c-5.28,10.47 -3.66,18.07 5.37,25.56c1.66,1.36 3.35,2.69 5.48,4.41zm78.52,1.15c0.96,0.04 1.29,0.05 1.62,0.07c3.68,0.27 8.1,1.09 8.31,-4.29c0.18,-4.78 -3.9,-4.9 -7.54,-5.17c-7.97,-0.58 -15.92,-1.37 -23.88,-1.94c-3.35,-0.24 -5.37,-1.64 -5.42,-5.16c-0.19,-11.49 -7.4,-18.41 -15.94,-24.39c-7.56,-5.3 -10.19,-4.57 -14.72,3.62c-0.32,0.58 -0.64,1.17 -0.86,1.8c-5.49,15.68 -11.54,31.19 -16.29,47.09c-4.81,16.07 3.51,27.1 20.21,28.5c6.3,0.53 12.6,1.54 18.9,1.57c5.22,0.02 6.89,2.39 7.46,7.08c1.25,10.23 2.76,20.43 4.35,30.62c0.8,5.12 3.88,7.58 8,6.88c4.16,-0.7 6.1,-4.01 5.23,-9.09c-2.45,-14.42 -5.02,-28.82 -7.34,-43.27c-0.51,-3.21 -2.22,-4.37 -5.06,-5.15c-10.25,-2.81 -20.5,-5.67 -30.63,-8.87c-1.7,-0.54 -2.82,-2.91 -4.21,-4.43c1.89,-0.8 3.91,-2.5 5.65,-2.24c8.62,1.26 8.59,1.44 12.16,-6.56c0.34,-0.76 0.95,-1.51 0.97,-2.28c0.04,-2.28 0.46,-4.83 -0.38,-6.8c-3.26,-7.64 -6.94,-15.1 -10.49,-22.62c-1.14,-2.41 -2.04,-4.98 1.01,-6.45c3.21,-1.55 4.43,1.14 5.5,3.42c3.12,6.62 6.25,13.23 9.21,19.92c1.66,3.76 4.43,5.67 8.43,6.01c8.8,0.73 17.59,1.46 25.75,2.13z"/>
  <path fill="#106eea" id="svg_3" d="m240.92,116.52c0.74,0.61 2.31,1.89 3.88,3.18c-1.56,1.33 -2.96,3.55 -4.69,3.85c-7.7,1.32 -15.55,1.81 -23.23,3.21c-2.99,0.55 -6.42,2.06 -8.41,4.25c-16.78,18.52 -33.37,37.22 -49.77,56.08c-3,3.46 -6.24,5.04 -10.63,5.32c-8.81,0.56 -17.6,1.34 -26.4,2.1c-1.46,0.13 -3.17,0.16 -4.3,0.92c-14.91,10.07 -32.39,13.7 -48.97,19.51c-19.3,6.76 -38.77,13.05 -58.17,19.53c-1.41,0.47 -2.94,1.19 -4.3,1c-1.24,-0.17 -2.96,-1.23 -3.3,-2.27c-0.34,-1.05 0.45,-2.86 1.31,-3.81c0.81,-0.88 2.35,-1.12 3.61,-1.54c29.95,-10.03 59.9,-20.04 89.85,-30.09c1.73,-0.58 3.69,-1 5.03,-2.11c10.2,-8.41 22.48,-9.66 34.83,-9.59c9.56,0.05 16.25,-3.25 22.44,-10.72c14.45,-17.44 29.83,-34.12 44.95,-51c1.57,-1.75 3.79,-3.69 5.94,-4.03c9.54,-1.5 19.15,-2.45 30.33,-3.79z"/>
  <path fill="#106eea" id="svg_4" d="m47.43,210.75c-7.68,-0.38 -11.71,-2.69 -14.11,-7.38c-2.59,-5.05 -2.14,-10.05 1.31,-14.53c3.76,-4.87 7.52,-9.78 11.73,-14.26c9.59,-10.23 16.64,-21.9 21.09,-35.17c0.47,-1.41 0.92,-3.1 1.96,-3.96c1.08,-0.9 3.18,-1.65 4.25,-1.16c1.04,0.47 2.22,2.98 1.81,3.92c-4.03,9.25 -7.48,18.94 -12.9,27.34c-6,9.31 -13.9,17.4 -20.96,26.03c-3.41,4.17 -3.52,7.9 -0.35,10.47c3.12,2.53 6.39,1.9 9.91,-2.07c8.62,-9.71 17.23,-19.42 25.75,-29.22c1.39,-1.6 2.45,-3.55 3.35,-5.48c3.38,-7.23 6.48,-14.59 10.06,-21.71c0.65,-1.29 3.06,-1.69 4.65,-2.5c0.65,1.53 2.28,3.51 1.81,4.51c-4.85,10.33 -8.96,21.24 -15.4,30.52c-7.26,10.46 -16.49,19.59 -25.28,28.9c-2.75,2.91 -6.85,4.57 -8.68,5.75z"/>
  <path fill="#106eea" id="svg_5" d="m130.39,2.73c12.51,0.03 22.6,10.17 22.47,22.59c-0.13,12.18 -10.23,22.2 -22.41,22.24c-12.61,0.04 -22.54,-9.83 -22.56,-22.43c-0.03,-12.66 9.78,-22.43 22.5,-22.4zm-15.39,22.15c-0.07,8.45 6.56,15.37 14.94,15.61c8.49,0.24 15.57,-6.8 15.56,-15.46c-0.01,-8.47 -6.73,-15.27 -15.16,-15.35c-8.28,-0.07 -15.27,6.85 -15.34,15.2z"/>
  <path fill="#106eea" id="svg_6" d="m160.26,136.23c0,10.65 0.16,21.31 -0.15,31.96c-0.05,1.77 -1.98,4.8 -3.3,4.94c-3.24,0.35 -3.62,-2.53 -3.55,-5.24c0.57,-20.64 1.06,-41.29 1.75,-61.92c0.06,-1.72 1.02,-4.42 2.24,-4.89c3.4,-1.31 4.77,0.88 4.76,4.19c-0.03,10.32 -0.01,20.64 -0.01,30.96c-0.57,0 -1.16,0 -1.74,0z"/>
 </g>
</svg>